
{
routingDefaults: {
    walkSpeed: 2.0,
    stairsReluctance: 4.0,
    carDropoffTime: 240
},


timeouts: [5, 4, 3, 1],

    // Routing defaults are any public field or setter in the Java class
    // org.opentripplanner.routing.core.RoutingRequest
    routingDefaults: {
        numItineraries: 6,
        walkSpeed: 2.0,
        stairsReluctance: 4.0,
        carDropoffTime: 240
    },
 
    updaters: [
 
        // GTFS-RT service alerts (frequent polling)
        {
            type: "stop-time-updater",
            frequencySec: 60,
	    sourceType: "gtfs-http",
            url: "http://129.217.30.88:8089/delay/rest/gtfs",
            feedId: "1"
        }
 
        // Polling bike rental updater.
        // sourceType can be: jcdecaux, b-cycle, bixi, keolis-rennes, ov-fiets,
        // city-bikes, citi-bike-nyc, next-bike, vcub, kml
/*
 *       {
            type: "bike-rental",
            frequencySec: 300,
            sourceType: "city-bikes",
            url: "http://host.domain.tld"
        },
 
        <!--- San Francisco Bay Area bike share -->
        {
          "type": "bike-rental",
          "frequencySec": 300,
          "sourceType": "sf-bay-area",
          "url": "http://www.bayareabikeshare.com/stations/json"
        }
 
        // Polling bike rental updater for DC bikeshare (a Bixi system)
        // Negative update frequency means to run once and then stop updating (essentially static data)
        {
            type: "bike-rental",
            sourceType: "bixi",
            url: "https://www.capitalbikeshare.com/data/stations/bikeStations.xml",
            frequencySec: -1
        },
 
        // Bike parking availability
        {
            type: "bike-park"
        }
 
        // Polling for GTFS-RT TripUpdates)
        {
            type: "stop-time-updater",
            frequencySec: 60,
            // this is either http or file... shouldn't it default to http or guess from the presence of a URL?
            sourceType: "gtfs-http",
            url: "http://developer.trimet.org/ws/V1/TripUpdate/appID/0123456789ABCDEF",
            feedId: "TriMet"
        },
 
        // Streaming differential GTFS-RT TripUpdates over websockets
        {
            type: "websocket-gtfs-rt-updater"
        },
 
        // OpenTraffic data
        {
          "type": "opentraffic-updater",
          "frequencySec": -1,
          // relative to OTP's working directory, where is traffic data stored.
          // Should have subdirectories z/x/y.traffic.pbf (i.e. a tile tree of traffic tiles)
          "tileDirectory": "traffic"
        }
*/	
    ]

 }
